Round Robin (RR)
Processing job #1014434712... 
	CYCLE  0         REMAINING:     124  ...
	CYCLE  1         REMAINING:     123  ...
	CYCLE  2         REMAINING:     122  ...
	CYCLE  3         REMAINING:     121  ...
	CYCLE  4         REMAINING:     120  ...

----------------------------------------------
Processing job #1... 
	CYCLE  5         REMAINING:     124  ...
	CYCLE  6         REMAINING:     123  ...
	CYCLE  7         REMAINING:     122  ...
	CYCLE  8         REMAINING:     121  ...
	CYCLE  9         REMAINING:     120  ...

----------------------------------------------
Processing job #2... 
	CYCLE  10        REMAINING:     107  ...
	CYCLE  11        REMAINING:     106  ...
	CYCLE  12        REMAINING:     105  ...
	CYCLE  13        REMAINING:     104  ...
	CYCLE  14        REMAINING:     103  ...

----------------------------------------------
Processing job #3... 
	CYCLE  15        REMAINING:     69   ...
	CYCLE  16        REMAINING:     68   ...
	CYCLE  17        REMAINING:     67   ...
	CYCLE  18        REMAINING:     66   ...
	CYCLE  19        REMAINING:     65   ...

----------------------------------------------
Processing job #4... 
	CYCLE  20        REMAINING:     58   ...
	CYCLE  21        REMAINING:     57   ...
	CYCLE  22        REMAINING:     56   ...
	CYCLE  23        REMAINING:     55   ...
	CYCLE  24        REMAINING:     54   ...

----------------------------------------------
Processing job #5... 
	CYCLE  25        REMAINING:     71   ...
	CYCLE  26        REMAINING:     70   ...
	CYCLE  27        REMAINING:     69   ...
	CYCLE  28        REMAINING:     68   ...
	CYCLE  29        REMAINING:     67   ...

----------------------------------------------
Processing job #6... 
	CYCLE  30        REMAINING:     56   ...
	CYCLE  31        REMAINING:     55   ...
	CYCLE  32        REMAINING:     54   ...
	CYCLE  33        REMAINING:     53   ...
	CYCLE  34        REMAINING:     52   ...

----------------------------------------------
Processing job #7... 
	CYCLE  35        REMAINING:     69   ...
	CYCLE  36        REMAINING:     68   ...
	CYCLE  37        REMAINING:     67   ...
	CYCLE  38        REMAINING:     66   ...
	CYCLE  39        REMAINING:     65   ...

----------------------------------------------
Processing job #8... 
	CYCLE  40        REMAINING:     109  ...
	CYCLE  41        REMAINING:     108  ...
	CYCLE  42        REMAINING:     107  ...
	CYCLE  43        REMAINING:     106  ...
	CYCLE  44        REMAINING:     105  ...

----------------------------------------------
Processing job #9... 
	CYCLE  45        REMAINING:     73   ...
	CYCLE  46        REMAINING:     72   ...
	CYCLE  47        REMAINING:     71   ...
	CYCLE  48        REMAINING:     70   ...
	CYCLE  49        REMAINING:     69   ...

----------------------------------------------
Processing job #1014434712... 
	CYCLE  50        REMAINING:     119  ...
	CYCLE  51        REMAINING:     118  ...
	CYCLE  52        REMAINING:     117  ...
	CYCLE  53        REMAINING:     116  ...
	CYCLE  54        REMAINING:     115  ...

----------------------------------------------
Processing job #1... 
	CYCLE  55        REMAINING:     119  ...
	CYCLE  56        REMAINING:     118  ...
	CYCLE  57        REMAINING:     117  ...
	CYCLE  58        REMAINING:     116  ...
	CYCLE  59        REMAINING:     115  ...

----------------------------------------------
Processing job #2... 
	CYCLE  60        REMAINING:     102  ...
	CYCLE  61        REMAINING:     101  ...
	CYCLE  62        REMAINING:     100  ...
	CYCLE  63        REMAINING:     99   ...
	CYCLE  64        REMAINING:     98   ...

----------------------------------------------
Processing job #3... 
	CYCLE  65        REMAINING:     64   ...
	CYCLE  66        REMAINING:     63   ...
	CYCLE  67        REMAINING:     62   ...
	CYCLE  68        REMAINING:     61   ...
	CYCLE  69        REMAINING:     60   ...

----------------------------------------------
Processing job #4... 
	CYCLE  70        REMAINING:     53   ...
	CYCLE  71        REMAINING:     52   ...
	CYCLE  72        REMAINING:     51   ...
	CYCLE  73        REMAINING:     50   ...
	CYCLE  74        REMAINING:     49   ...

----------------------------------------------
Processing job #5... 
	CYCLE  75        REMAINING:     66   ...
	CYCLE  76        REMAINING:     65   ...
	CYCLE  77        REMAINING:     64   ...
	CYCLE  78        REMAINING:     63   ...
	CYCLE  79        REMAINING:     62   ...

----------------------------------------------
Processing job #6... 
	CYCLE  80        REMAINING:     51   ...
	CYCLE  81        REMAINING:     50   ...
	CYCLE  82        REMAINING:     49   ...
	CYCLE  83        REMAINING:     48   ...
	CYCLE  84        REMAINING:     47   ...

----------------------------------------------
Processing job #7... 
	CYCLE  85        REMAINING:     64   ...
	CYCLE  86        REMAINING:     63   ...
	CYCLE  87        REMAINING:     62   ...
	CYCLE  88        REMAINING:     61   ...
	CYCLE  89        REMAINING:     60   ...

----------------------------------------------
Processing job #8... 
	CYCLE  90        REMAINING:     104  ...
	CYCLE  91        REMAINING:     103  ...
	CYCLE  92        REMAINING:     102  ...
	CYCLE  93        REMAINING:     101  ...
	CYCLE  94        REMAINING:     100  ...

----------------------------------------------
Processing job #9... 
	CYCLE  95        REMAINING:     68   ...
	CYCLE  96        REMAINING:     67   ...
	CYCLE  97        REMAINING:     66   ...
	CYCLE  98        REMAINING:     65   ...
	CYCLE  99        REMAINING:     64   ...

----------------------------------------------
Processing job #1014434712... 
	CYCLE  100       REMAINING:     114  ...
	CYCLE  101       REMAINING:     113  ...
	CYCLE  102       REMAINING:     112  ...
	CYCLE  103       REMAINING:     111  ...
	CYCLE  104       REMAINING:     110  ...

----------------------------------------------
Processing job #1... 
	CYCLE  105       REMAINING:     114  ...
	CYCLE  106       REMAINING:     113  ...
	CYCLE  107       REMAINING:     112  ...
	CYCLE  108       REMAINING:     111  ...
	CYCLE  109       REMAINING:     110  ...

----------------------------------------------
Processing job #2... 
	CYCLE  110       REMAINING:     97   ...
	CYCLE  111       REMAINING:     96   ...
	CYCLE  112       REMAINING:     95   ...
	CYCLE  113       REMAINING:     94   ...
	CYCLE  114       REMAINING:     93   ...

----------------------------------------------
Processing job #3... 
	CYCLE  115       REMAINING:     59   ...
	CYCLE  116       REMAINING:     58   ...
	CYCLE  117       REMAINING:     57   ...
	CYCLE  118       REMAINING:     56   ...
	CYCLE  119       REMAINING:     55   ...

----------------------------------------------
Processing job #4... 
	CYCLE  120       REMAINING:     48   ...
	CYCLE  121       REMAINING:     47   ...
	CYCLE  122       REMAINING:     46   ...
	CYCLE  123       REMAINING:     45   ...
	CYCLE  124       REMAINING:     44   ...

----------------------------------------------
Processing job #5... 
	CYCLE  125       REMAINING:     61   ...
	CYCLE  126       REMAINING:     60   ...
	CYCLE  127       REMAINING:     59   ...
	CYCLE  128       REMAINING:     58   ...
	CYCLE  129       REMAINING:     57   ...

----------------------------------------------
Processing job #6... 
	CYCLE  130       REMAINING:     46   ...
	CYCLE  131       REMAINING:     45   ...
	CYCLE  132       REMAINING:     44   ...
	CYCLE  133       REMAINING:     43   ...
	CYCLE  134       REMAINING:     42   ...

----------------------------------------------
Processing job #7... 
	CYCLE  135       REMAINING:     59   ...
	CYCLE  136       REMAINING:     58   ...
	CYCLE  137       REMAINING:     57   ...
	CYCLE  138       REMAINING:     56   ...
	CYCLE  139       REMAINING:     55   ...

----------------------------------------------
Processing job #8... 
	CYCLE  140       REMAINING:     99   ...
	CYCLE  141       REMAINING:     98   ...
	CYCLE  142       REMAINING:     97   ...
	CYCLE  143       REMAINING:     96   ...
	CYCLE  144       REMAINING:     95   ...

----------------------------------------------
Processing job #9... 
	CYCLE  145       REMAINING:     63   ...
	CYCLE  146       REMAINING:     62   ...
	CYCLE  147       REMAINING:     61   ...
	CYCLE  148       REMAINING:     60   ...
	CYCLE  149       REMAINING:     59   ...

----------------------------------------------
Processing job #1014434712... 
	CYCLE  150       REMAINING:     109  ...
	CYCLE  151       REMAINING:     108  ...
	CYCLE  152       REMAINING:     107  ...
	CYCLE  153       REMAINING:     106  ...
	CYCLE  154       REMAINING:     105  ...

----------------------------------------------
Processing job #1... 
	CYCLE  155       REMAINING:     109  ...
	CYCLE  156       REMAINING:     108  ...
	CYCLE  157       REMAINING:     107  ...
	CYCLE  158       REMAINING:     106  ...
	CYCLE  159       REMAINING:     105  ...

----------------------------------------------
Processing job #2... 
	CYCLE  160       REMAINING:     92   ...
	CYCLE  161       REMAINING:     91   ...
	CYCLE  162       REMAINING:     90   ...
	CYCLE  163       REMAINING:     89   ...
	CYCLE  164       REMAINING:     88   ...

----------------------------------------------
Processing job #3... 
	CYCLE  165       REMAINING:     54   ...
	CYCLE  166       REMAINING:     53   ...
	CYCLE  167       REMAINING:     52   ...
	CYCLE  168       REMAINING:     51   ...
	CYCLE  169       REMAINING:     50   ...

----------------------------------------------
Processing job #4... 
	CYCLE  170       REMAINING:     43   ...
	CYCLE  171       REMAINING:     42   ...
	CYCLE  172       REMAINING:     41   ...
	CYCLE  173       REMAINING:     40   ...
	CYCLE  174       REMAINING:     39   ...

----------------------------------------------
Processing job #5... 
	CYCLE  175       REMAINING:     56   ...
	CYCLE  176       REMAINING:     55   ...
	CYCLE  177       REMAINING:     54   ...
	CYCLE  178       REMAINING:     53   ...
	CYCLE  179       REMAINING:     52   ...

----------------------------------------------
Processing job #6... 
	CYCLE  180       REMAINING:     41   ...
	CYCLE  181       REMAINING:     40   ...
	CYCLE  182       REMAINING:     39   ...
	CYCLE  183       REMAINING:     38   ...
	CYCLE  184       REMAINING:     37   ...

----------------------------------------------
Processing job #7... 
	CYCLE  185       REMAINING:     54   ...
	CYCLE  186       REMAINING:     53   ...
	CYCLE  187       REMAINING:     52   ...
	CYCLE  188       REMAINING:     51   ...
	CYCLE  189       REMAINING:     50   ...

----------------------------------------------
Processing job #8... 
	CYCLE  190       REMAINING:     94   ...
	CYCLE  191       REMAINING:     93   ...
	CYCLE  192       REMAINING:     92   ...
	CYCLE  193       REMAINING:     91   ...
	CYCLE  194       REMAINING:     90   ...

----------------------------------------------
Processing job #9... 
	CYCLE  195       REMAINING:     58   ...
	CYCLE  196       REMAINING:     57   ...
	CYCLE  197       REMAINING:     56   ...
	CYCLE  198       REMAINING:     55   ...
	CYCLE  199       REMAINING:     54   ...

----------------------------------------------
Processing job #1014434712... 
	CYCLE  200       REMAINING:     104  ...
	CYCLE  201       REMAINING:     103  ...
	CYCLE  202       REMAINING:     102  ...
	CYCLE  203       REMAINING:     101  ...
	CYCLE  204       REMAINING:     100  ...

----------------------------------------------
Processing job #1... 
	CYCLE  205       REMAINING:     104  ...
	CYCLE  206       REMAINING:     103  ...
	CYCLE  207       REMAINING:     102  ...
	CYCLE  208       REMAINING:     101  ...
	CYCLE  209       REMAINING:     100  ...

----------------------------------------------
Processing job #2... 
	CYCLE  210       REMAINING:     87   ...
	CYCLE  211       REMAINING:     86   ...
	CYCLE  212       REMAINING:     85   ...
	CYCLE  213       REMAINING:     84   ...
	CYCLE  214       REMAINING:     83   ...

----------------------------------------------
Processing job #3... 
	CYCLE  215       REMAINING:     49   ...
	CYCLE  216       REMAINING:     48   ...
	CYCLE  217       REMAINING:     47   ...
	CYCLE  218       REMAINING:     46   ...
	CYCLE  219       REMAINING:     45   ...

----------------------------------------------
Processing job #4... 
	CYCLE  220       REMAINING:     38   ...
	CYCLE  221       REMAINING:     37   ...
	CYCLE  222       REMAINING:     36   ...
	CYCLE  223       REMAINING:     35   ...
	CYCLE  224       REMAINING:     34   ...

----------------------------------------------
Processing job #5... 
	CYCLE  225       REMAINING:     51   ...
	CYCLE  226       REMAINING:     50   ...
	CYCLE  227       REMAINING:     49   ...
	CYCLE  228       REMAINING:     48   ...
	CYCLE  229       REMAINING:     47   ...

----------------------------------------------
Processing job #6... 
	CYCLE  230       REMAINING:     36   ...
	CYCLE  231       REMAINING:     35   ...
	CYCLE  232       REMAINING:     34   ...
	CYCLE  233       REMAINING:     33   ...
	CYCLE  234       REMAINING:     32   ...

----------------------------------------------
Processing job #7... 
	CYCLE  235       REMAINING:     49   ...
	CYCLE  236       REMAINING:     48   ...
	CYCLE  237       REMAINING:     47   ...
	CYCLE  238       REMAINING:     46   ...
	CYCLE  239       REMAINING:     45   ...

----------------------------------------------
Processing job #8... 
	CYCLE  240       REMAINING:     89   ...
	CYCLE  241       REMAINING:     88   ...
	CYCLE  242       REMAINING:     87   ...
	CYCLE  243       REMAINING:     86   ...
	CYCLE  244       REMAINING:     85   ...

----------------------------------------------
Processing job #9... 
	CYCLE  245       REMAINING:     53   ...
	CYCLE  246       REMAINING:     52   ...
	CYCLE  247       REMAINING:     51   ...
	CYCLE  248       REMAINING:     50   ...
	CYCLE  249       REMAINING:     49   ...

----------------------------------------------
Processing job #1014434712... 
	CYCLE  250       REMAINING:     99   ...
	CYCLE  251       REMAINING:     98   ...
	CYCLE  252       REMAINING:     97   ...
	CYCLE  253       REMAINING:     96   ...
	CYCLE  254       REMAINING:     95   ...

----------------------------------------------
Processing job #1... 
	CYCLE  255       REMAINING:     99   ...
	CYCLE  256       REMAINING:     98   ...
	CYCLE  257       REMAINING:     97   ...
	CYCLE  258       REMAINING:     96   ...
	CYCLE  259       REMAINING:     95   ...

----------------------------------------------
Processing job #2... 
	CYCLE  260       REMAINING:     82   ...
	CYCLE  261       REMAINING:     81   ...
	CYCLE  262       REMAINING:     80   ...
	CYCLE  263       REMAINING:     79   ...
	CYCLE  264       REMAINING:     78   ...

----------------------------------------------
Processing job #3... 
	CYCLE  265       REMAINING:     44   ...
	CYCLE  266       REMAINING:     43   ...
	CYCLE  267       REMAINING:     42   ...
	CYCLE  268       REMAINING:     41   ...
	CYCLE  269       REMAINING:     40   ...

----------------------------------------------
Processing job #4... 
	CYCLE  270       REMAINING:     33   ...
	CYCLE  271       REMAINING:     32   ...
	CYCLE  272       REMAINING:     31   ...
	CYCLE  273       REMAINING:     30   ...
	CYCLE  274       REMAINING:     29   ...

----------------------------------------------
Processing job #5... 
	CYCLE  275       REMAINING:     46   ...
	CYCLE  276       REMAINING:     45   ...
	CYCLE  277       REMAINING:     44   ...
	CYCLE  278       REMAINING:     43   ...
	CYCLE  279       REMAINING:     42   ...

----------------------------------------------
Processing job #6... 
	CYCLE  280       REMAINING:     31   ...
	CYCLE  281       REMAINING:     30   ...
	CYCLE  282       REMAINING:     29   ...
	CYCLE  283       REMAINING:     28   ...
	CYCLE  284       REMAINING:     27   ...

----------------------------------------------
Processing job #7... 
	CYCLE  285       REMAINING:     44   ...
	CYCLE  286       REMAINING:     43   ...
	CYCLE  287       REMAINING:     42   ...
	CYCLE  288       REMAINING:     41   ...
	CYCLE  289       REMAINING:     40   ...

----------------------------------------------
Processing job #8... 
	CYCLE  290       REMAINING:     84   ...
	CYCLE  291       REMAINING:     83   ...
	CYCLE  292       REMAINING:     82   ...
	CYCLE  293       REMAINING:     81   ...
	CYCLE  294       REMAINING:     80   ...

----------------------------------------------
Processing job #9... 
	CYCLE  295       REMAINING:     48   ...
	CYCLE  296       REMAINING:     47   ...
	CYCLE  297       REMAINING:     46   ...
	CYCLE  298       REMAINING:     45   ...
	CYCLE  299       REMAINING:     44   ...

----------------------------------------------
Processing job #1014434712... 
	CYCLE  300       REMAINING:     94   ...
	CYCLE  301       REMAINING:     93   ...
	CYCLE  302       REMAINING:     92   ...
	CYCLE  303       REMAINING:     91   ...
	CYCLE  304       REMAINING:     90   ...

----------------------------------------------
Processing job #1... 
	CYCLE  305       REMAINING:     94   ...
	CYCLE  306       REMAINING:     93   ...
	CYCLE  307       REMAINING:     92   ...
	CYCLE  308       REMAINING:     91   ...
	CYCLE  309       REMAINING:     90   ...

----------------------------------------------
Processing job #2... 
	CYCLE  310       REMAINING:     77   ...
	CYCLE  311       REMAINING:     76   ...
	CYCLE  312       REMAINING:     75   ...
	CYCLE  313       REMAINING:     74   ...
	CYCLE  314       REMAINING:     73   ...

----------------------------------------------
Processing job #3... 
	CYCLE  315       REMAINING:     39   ...
	CYCLE  316       REMAINING:     38   ...
	CYCLE  317       REMAINING:     37   ...
	CYCLE  318       REMAINING:     36   ...
	CYCLE  319       REMAINING:     35   ...

----------------------------------------------
Processing job #4... 
	CYCLE  320       REMAINING:     28   ...
	CYCLE  321       REMAINING:     27   ...
	CYCLE  322       REMAINING:     26   ...
	CYCLE  323       REMAINING:     25   ...
	CYCLE  324       REMAINING:     24   ...

----------------------------------------------
Processing job #5... 
	CYCLE  325       REMAINING:     41   ...
	CYCLE  326       REMAINING:     40   ...
	CYCLE  327       REMAINING:     39   ...
	CYCLE  328       REMAINING:     38   ...
	CYCLE  329       REMAINING:     37   ...

----------------------------------------------
Processing job #6... 
	CYCLE  330       REMAINING:     26   ...
	CYCLE  331       REMAINING:     25   ...
	CYCLE  332       REMAINING:     24   ...
	CYCLE  333       REMAINING:     23   ...
	CYCLE  334       REMAINING:     22   ...

----------------------------------------------
Processing job #7... 
	CYCLE  335       REMAINING:     39   ...
	CYCLE  336       REMAINING:     38   ...
	CYCLE  337       REMAINING:     37   ...
	CYCLE  338       REMAINING:     36   ...
	CYCLE  339       REMAINING:     35   ...

----------------------------------------------
Processing job #8... 
	CYCLE  340       REMAINING:     79   ...
	CYCLE  341       REMAINING:     78   ...
	CYCLE  342       REMAINING:     77   ...
	CYCLE  343       REMAINING:     76   ...
	CYCLE  344       REMAINING:     75   ...

----------------------------------------------
Processing job #9... 
	CYCLE  345       REMAINING:     43   ...
	CYCLE  346       REMAINING:     42   ...
	CYCLE  347       REMAINING:     41   ...
	CYCLE  348       REMAINING:     40   ...
	CYCLE  349       REMAINING:     39   ...

----------------------------------------------
Processing job #1014434712... 
	CYCLE  350       REMAINING:     89   ...
	CYCLE  351       REMAINING:     88   ...
	CYCLE  352       REMAINING:     87   ...
	CYCLE  353       REMAINING:     86   ...
	CYCLE  354       REMAINING:     85   ...

----------------------------------------------
Processing job #1... 
	CYCLE  355       REMAINING:     89   ...
	CYCLE  356       REMAINING:     88   ...
	CYCLE  357       REMAINING:     87   ...
	CYCLE  358       REMAINING:     86   ...
	CYCLE  359       REMAINING:     85   ...

----------------------------------------------
Processing job #2... 
	CYCLE  360       REMAINING:     72   ...
	CYCLE  361       REMAINING:     71   ...
	CYCLE  362       REMAINING:     70   ...
	CYCLE  363       REMAINING:     69   ...
	CYCLE  364       REMAINING:     68   ...

----------------------------------------------
Processing job #3... 
	CYCLE  365       REMAINING:     34   ...
	CYCLE  366       REMAINING:     33   ...
	CYCLE  367       REMAINING:     32   ...
	CYCLE  368       REMAINING:     31   ...
	CYCLE  369       REMAINING:     30   ...

----------------------------------------------
Processing job #4... 
	CYCLE  370       REMAINING:     23   ...
	CYCLE  371       REMAINING:     22   ...
	CYCLE  372       REMAINING:     21   ...
	CYCLE  373       REMAINING:     20   ...
	CYCLE  374       REMAINING:     19   ...

----------------------------------------------
Processing job #5... 
	CYCLE  375       REMAINING:     36   ...
	CYCLE  376       REMAINING:     35   ...
	CYCLE  377       REMAINING:     34   ...
	CYCLE  378       REMAINING:     33   ...
	CYCLE  379       REMAINING:     32   ...

----------------------------------------------
Processing job #6... 
	CYCLE  380       REMAINING:     21   ...
	CYCLE  381       REMAINING:     20   ...
	CYCLE  382       REMAINING:     19   ...
	CYCLE  383       REMAINING:     18   ...
	CYCLE  384       REMAINING:     17   ...

----------------------------------------------
Processing job #7... 
	CYCLE  385       REMAINING:     34   ...
	CYCLE  386       REMAINING:     33   ...
	CYCLE  387       REMAINING:     32   ...
	CYCLE  388       REMAINING:     31   ...
	CYCLE  389       REMAINING:     30   ...

----------------------------------------------
Processing job #8... 
	CYCLE  390       REMAINING:     74   ...
	CYCLE  391       REMAINING:     73   ...
	CYCLE  392       REMAINING:     72   ...
	CYCLE  393       REMAINING:     71   ...
	CYCLE  394       REMAINING:     70   ...

----------------------------------------------
Processing job #9... 
	CYCLE  395       REMAINING:     38   ...
	CYCLE  396       REMAINING:     37   ...
	CYCLE  397       REMAINING:     36   ...
	CYCLE  398       REMAINING:     35   ...
	CYCLE  399       REMAINING:     34   ...

----------------------------------------------
Processing job #1014434712... 
	CYCLE  400       REMAINING:     84   ...
	CYCLE  401       REMAINING:     83   ...
	CYCLE  402       REMAINING:     82   ...
	CYCLE  403       REMAINING:     81   ...
	CYCLE  404       REMAINING:     80   ...

----------------------------------------------
Processing job #1... 
	CYCLE  405       REMAINING:     84   ...
	CYCLE  406       REMAINING:     83   ...
	CYCLE  407       REMAINING:     82   ...
	CYCLE  408       REMAINING:     81   ...
	CYCLE  409       REMAINING:     80   ...

----------------------------------------------
Processing job #2... 
	CYCLE  410       REMAINING:     67   ...
	CYCLE  411       REMAINING:     66   ...
	CYCLE  412       REMAINING:     65   ...
	CYCLE  413       REMAINING:     64   ...
	CYCLE  414       REMAINING:     63   ...

----------------------------------------------
Processing job #3... 
	CYCLE  415       REMAINING:     29   ...
	CYCLE  416       REMAINING:     28   ...
	CYCLE  417       REMAINING:     27   ...
	CYCLE  418       REMAINING:     26   ...
	CYCLE  419       REMAINING:     25   ...

----------------------------------------------
Processing job #4... 
	CYCLE  420       REMAINING:     18   ...
	CYCLE  421       REMAINING:     17   ...
	CYCLE  422       REMAINING:     16   ...
	CYCLE  423       REMAINING:     15   ...
	CYCLE  424       REMAINING:     14   ...

----------------------------------------------
Processing job #5... 
	CYCLE  425       REMAINING:     31   ...
	CYCLE  426       REMAINING:     30   ...
	CYCLE  427       REMAINING:     29   ...
	CYCLE  428       REMAINING:     28   ...
	CYCLE  429       REMAINING:     27   ...

----------------------------------------------
Processing job #6... 
	CYCLE  430       REMAINING:     16   ...
	CYCLE  431       REMAINING:     15   ...
	CYCLE  432       REMAINING:     14   ...
	CYCLE  433       REMAINING:     13   ...
	CYCLE  434       REMAINING:     12   ...

----------------------------------------------
Processing job #7... 
	CYCLE  435       REMAINING:     29   ...
	CYCLE  436       REMAINING:     28   ...
	CYCLE  437       REMAINING:     27   ...
	CYCLE  438       REMAINING:     26   ...
	CYCLE  439       REMAINING:     25   ...

----------------------------------------------
Processing job #8... 
	CYCLE  440       REMAINING:     69   ...
	CYCLE  441       REMAINING:     68   ...
	CYCLE  442       REMAINING:     67   ...
	CYCLE  443       REMAINING:     66   ...
	CYCLE  444       REMAINING:     65   ...

----------------------------------------------
Processing job #9... 
	CYCLE  445       REMAINING:     33   ...
	CYCLE  446       REMAINING:     32   ...
	CYCLE  447       REMAINING:     31   ...
	CYCLE  448       REMAINING:     30   ...
	CYCLE  449       REMAINING:     29   ...

----------------------------------------------
Processing job #1014434712... 
	CYCLE  450       REMAINING:     79   ...
	CYCLE  451       REMAINING:     78   ...
	CYCLE  452       REMAINING:     77   ...
	CYCLE  453       REMAINING:     76   ...
	CYCLE  454       REMAINING:     75   ...

----------------------------------------------
Processing job #1... 
	CYCLE  455       REMAINING:     79   ...
	CYCLE  456       REMAINING:     78   ...
	CYCLE  457       REMAINING:     77   ...
	CYCLE  458       REMAINING:     76   ...
	CYCLE  459       REMAINING:     75   ...

----------------------------------------------
Processing job #2... 
	CYCLE  460       REMAINING:     62   ...
	CYCLE  461       REMAINING:     61   ...
	CYCLE  462       REMAINING:     60   ...
	CYCLE  463       REMAINING:     59   ...
	CYCLE  464       REMAINING:     58   ...

----------------------------------------------
Processing job #3... 
	CYCLE  465       REMAINING:     24   ...
	CYCLE  466       REMAINING:     23   ...
	CYCLE  467       REMAINING:     22   ...
	CYCLE  468       REMAINING:     21   ...
	CYCLE  469       REMAINING:     20   ...

----------------------------------------------
Processing job #4... 
	CYCLE  470       REMAINING:     13   ...
	CYCLE  471       REMAINING:     12   ...
	CYCLE  472       REMAINING:     11   ...
	CYCLE  473       REMAINING:     10   ...
	CYCLE  474       REMAINING:     9    ...

----------------------------------------------
Processing job #5... 
	CYCLE  475       REMAINING:     26   ...
	CYCLE  476       REMAINING:     25   ...
	CYCLE  477       REMAINING:     24   ...
	CYCLE  478       REMAINING:     23   ...
	CYCLE  479       REMAINING:     22   ...

----------------------------------------------
Processing job #6... 
	CYCLE  480       REMAINING:     11   ...
	CYCLE  481       REMAINING:     10   ...
	CYCLE  482       REMAINING:     9    ...
	CYCLE  483       REMAINING:     8    ...
	CYCLE  484       REMAINING:     7    ...

----------------------------------------------
Processing job #7... 
	CYCLE  485       REMAINING:     24   ...
	CYCLE  486       REMAINING:     23   ...
	CYCLE  487       REMAINING:     22   ...
	CYCLE  488       REMAINING:     21   ...
	CYCLE  489       REMAINING:     20   ...

----------------------------------------------
Processing job #8... 
	CYCLE  490       REMAINING:     64   ...
	CYCLE  491       REMAINING:     63   ...
	CYCLE  492       REMAINING:     62   ...
	CYCLE  493       REMAINING:     61   ...
	CYCLE  494       REMAINING:     60   ...

----------------------------------------------
Processing job #9... 
	CYCLE  495       REMAINING:     28   ...
	CYCLE  496       REMAINING:     27   ...
	CYCLE  497       REMAINING:     26   ...
	CYCLE  498       REMAINING:     25   ...
	CYCLE  499       REMAINING:     24   ...

----------------------------------------------
Processing job #1014434712... 
	CYCLE  500       REMAINING:     74   ...
	CYCLE  501       REMAINING:     73   ...
	CYCLE  502       REMAINING:     72   ...
	CYCLE  503       REMAINING:     71   ...
	CYCLE  504       REMAINING:     70   ...

----------------------------------------------
Processing job #1... 
	CYCLE  505       REMAINING:     74   ...
	CYCLE  506       REMAINING:     73   ...
	CYCLE  507       REMAINING:     72   ...
	CYCLE  508       REMAINING:     71   ...
	CYCLE  509       REMAINING:     70   ...

----------------------------------------------
Processing job #2... 
	CYCLE  510       REMAINING:     57   ...
	CYCLE  511       REMAINING:     56   ...
	CYCLE  512       REMAINING:     55   ...
	CYCLE  513       REMAINING:     54   ...
	CYCLE  514       REMAINING:     53   ...

----------------------------------------------
Processing job #3... 
	CYCLE  515       REMAINING:     19   ...
	CYCLE  516       REMAINING:     18   ...
	CYCLE  517       REMAINING:     17   ...
	CYCLE  518       REMAINING:     16   ...
	CYCLE  519       REMAINING:     15   ...

----------------------------------------------
Processing job #4... 
	CYCLE  520       REMAINING:     8    ...
	CYCLE  521       REMAINING:     7    ...
	CYCLE  522       REMAINING:     6    ...
	CYCLE  523       REMAINING:     5    ...
	CYCLE  524       REMAINING:     4    ...

----------------------------------------------
Processing job #5... 
	CYCLE  525       REMAINING:     21   ...
	CYCLE  526       REMAINING:     20   ...
	CYCLE  527       REMAINING:     19   ...
	CYCLE  528       REMAINING:     18   ...
	CYCLE  529       REMAINING:     17   ...

----------------------------------------------
Processing job #6... 
	CYCLE  530       REMAINING:     6    ...
	CYCLE  531       REMAINING:     5    ...
	CYCLE  532       REMAINING:     4    ...
	CYCLE  533       REMAINING:     3    ...
	CYCLE  534       REMAINING:     2    ...

----------------------------------------------
Processing job #7... 
	CYCLE  535       REMAINING:     19   ...
	CYCLE  536       REMAINING:     18   ...
	CYCLE  537       REMAINING:     17   ...
	CYCLE  538       REMAINING:     16   ...
	CYCLE  539       REMAINING:     15   ...

----------------------------------------------
Processing job #8... 
	CYCLE  540       REMAINING:     59   ...
	CYCLE  541       REMAINING:     58   ...
	CYCLE  542       REMAINING:     57   ...
	CYCLE  543       REMAINING:     56   ...
	CYCLE  544       REMAINING:     55   ...

----------------------------------------------
Processing job #9... 
	CYCLE  545       REMAINING:     23   ...
	CYCLE  546       REMAINING:     22   ...
	CYCLE  547       REMAINING:     21   ...
	CYCLE  548       REMAINING:     20   ...
	CYCLE  549       REMAINING:     19   ...

----------------------------------------------
Processing job #1014434712... 
	CYCLE  550       REMAINING:     69   ...
	CYCLE  551       REMAINING:     68   ...
	CYCLE  552       REMAINING:     67   ...
	CYCLE  553       REMAINING:     66   ...
	CYCLE  554       REMAINING:     65   ...

----------------------------------------------
Processing job #1... 
	CYCLE  555       REMAINING:     69   ...
	CYCLE  556       REMAINING:     68   ...
	CYCLE  557       REMAINING:     67   ...
	CYCLE  558       REMAINING:     66   ...
	CYCLE  559       REMAINING:     65   ...

----------------------------------------------
Processing job #2... 
	CYCLE  560       REMAINING:     52   ...
	CYCLE  561       REMAINING:     51   ...
	CYCLE  562       REMAINING:     50   ...
	CYCLE  563       REMAINING:     49   ...
	CYCLE  564       REMAINING:     48   ...

----------------------------------------------
Processing job #3... 
	CYCLE  565       REMAINING:     14   ...
	CYCLE  566       REMAINING:     13   ...
	CYCLE  567       REMAINING:     12   ...
	CYCLE  568       REMAINING:     11   ...
	CYCLE  569       REMAINING:     10   ...

----------------------------------------------
Processing job #4... 
	CYCLE  570       REMAINING:     3    ...
	CYCLE  571       REMAINING:     2    ...
	CYCLE  572       REMAINING:     1    ...
	CYCLE  573       REMAINING:     0    ...
	CYCLE  574       REMAINING:     16   ...

----------------------------------------------
Processing job #6... 
	CYCLE  575       REMAINING:     1    ...
	CYCLE  576       REMAINING:     0    ...
	CYCLE  577       REMAINING:     14   ...
	CYCLE  578       REMAINING:     13   ...
	CYCLE  579       REMAINING:     12   ...

----------------------------------------------
Processing job #8... 
	CYCLE  580       REMAINING:     54   ...
	CYCLE  581       REMAINING:     53   ...
	CYCLE  582       REMAINING:     52   ...
	CYCLE  583       REMAINING:     51   ...
	CYCLE  584       REMAINING:     50   ...

----------------------------------------------
Processing job #9... 
	CYCLE  585       REMAINING:     18   ...
	CYCLE  586       REMAINING:     17   ...
	CYCLE  587       REMAINING:     16   ...
	CYCLE  588       REMAINING:     15   ...
	CYCLE  589       REMAINING:     14   ...

----------------------------------------------
Processing job #1014434712... 
	CYCLE  590       REMAINING:     64   ...
	CYCLE  591       REMAINING:     63   ...
	CYCLE  592       REMAINING:     62   ...
	CYCLE  593       REMAINING:     61   ...
	CYCLE  594       REMAINING:     60   ...

----------------------------------------------
Processing job #1... 
	CYCLE  595       REMAINING:     64   ...
	CYCLE  596       REMAINING:     63   ...
	CYCLE  597       REMAINING:     62   ...
	CYCLE  598       REMAINING:     61   ...
	CYCLE  599       REMAINING:     60   ...

----------------------------------------------
Processing job #2... 
	CYCLE  600       REMAINING:     47   ...
	CYCLE  601       REMAINING:     46   ...
	CYCLE  602       REMAINING:     45   ...
	CYCLE  603       REMAINING:     44   ...
	CYCLE  604       REMAINING:     43   ...

----------------------------------------------
Processing job #3... 
	CYCLE  605       REMAINING:     9    ...
	CYCLE  606       REMAINING:     8    ...
	CYCLE  607       REMAINING:     7    ...
	CYCLE  608       REMAINING:     6    ...
	CYCLE  609       REMAINING:     5    ...

----------------------------------------------
Processing job #5... 
	CYCLE  610       REMAINING:     15   ...
	CYCLE  611       REMAINING:     14   ...
	CYCLE  612       REMAINING:     13   ...
	CYCLE  613       REMAINING:     12   ...
	CYCLE  614       REMAINING:     11   ...

----------------------------------------------
Processing job #7... 
	CYCLE  615       REMAINING:     11   ...
	CYCLE  616       REMAINING:     10   ...
	CYCLE  617       REMAINING:     9    ...
	CYCLE  618       REMAINING:     8    ...
	CYCLE  619       REMAINING:     7    ...

----------------------------------------------
Processing job #8... 
	CYCLE  620       REMAINING:     49   ...
	CYCLE  621       REMAINING:     48   ...
	CYCLE  622       REMAINING:     47   ...
	CYCLE  623       REMAINING:     46   ...
	CYCLE  624       REMAINING:     45   ...

----------------------------------------------
Processing job #9... 
	CYCLE  625       REMAINING:     13   ...
	CYCLE  626       REMAINING:     12   ...
	CYCLE  627       REMAINING:     11   ...
	CYCLE  628       REMAINING:     10   ...
	CYCLE  629       REMAINING:     9    ...

----------------------------------------------
Processing job #1014434712... 
	CYCLE  630       REMAINING:     59   ...
	CYCLE  631       REMAINING:     58   ...
	CYCLE  632       REMAINING:     57   ...
	CYCLE  633       REMAINING:     56   ...
	CYCLE  634       REMAINING:     55   ...

----------------------------------------------
Processing job #1... 
	CYCLE  635       REMAINING:     59   ...
	CYCLE  636       REMAINING:     58   ...
	CYCLE  637       REMAINING:     57   ...
	CYCLE  638       REMAINING:     56   ...
	CYCLE  639       REMAINING:     55   ...

----------------------------------------------
Processing job #2... 
	CYCLE  640       REMAINING:     42   ...
	CYCLE  641       REMAINING:     41   ...
	CYCLE  642       REMAINING:     40   ...
	CYCLE  643       REMAINING:     39   ...
	CYCLE  644       REMAINING:     38   ...

----------------------------------------------
Processing job #3... 
	CYCLE  645       REMAINING:     4    ...
	CYCLE  646       REMAINING:     3    ...
	CYCLE  647       REMAINING:     2    ...
	CYCLE  648       REMAINING:     1    ...
	CYCLE  649       REMAINING:     0    ...

----------------------------------------------
Processing job #7... 
	CYCLE  650       REMAINING:     6    ...
	CYCLE  651       REMAINING:     5    ...
	CYCLE  652       REMAINING:     4    ...
	CYCLE  653       REMAINING:     3    ...
	CYCLE  654       REMAINING:     2    ...

----------------------------------------------
Processing job #8... 
	CYCLE  655       REMAINING:     44   ...
	CYCLE  656       REMAINING:     43   ...
	CYCLE  657       REMAINING:     42   ...
	CYCLE  658       REMAINING:     41   ...
	CYCLE  659       REMAINING:     40   ...

----------------------------------------------
Processing job #9... 
	CYCLE  660       REMAINING:     8    ...
	CYCLE  661       REMAINING:     7    ...
	CYCLE  662       REMAINING:     6    ...
	CYCLE  663       REMAINING:     5    ...
	CYCLE  664       REMAINING:     4    ...

----------------------------------------------
Processing job #1014434712... 
	CYCLE  665       REMAINING:     54   ...
	CYCLE  666       REMAINING:     53   ...
	CYCLE  667       REMAINING:     52   ...
	CYCLE  668       REMAINING:     51   ...
	CYCLE  669       REMAINING:     50   ...

----------------------------------------------
Processing job #1... 
	CYCLE  670       REMAINING:     54   ...
	CYCLE  671       REMAINING:     53   ...
	CYCLE  672       REMAINING:     52   ...
	CYCLE  673       REMAINING:     51   ...
	CYCLE  674       REMAINING:     50   ...

----------------------------------------------
Processing job #2... 
	CYCLE  675       REMAINING:     37   ...
	CYCLE  676       REMAINING:     36   ...
	CYCLE  677       REMAINING:     35   ...
	CYCLE  678       REMAINING:     34   ...
	CYCLE  679       REMAINING:     33   ...

----------------------------------------------
Processing job #5... 
	CYCLE  680       REMAINING:     10   ...
	CYCLE  681       REMAINING:     9    ...
	CYCLE  682       REMAINING:     8    ...
	CYCLE  683       REMAINING:     7    ...
	CYCLE  684       REMAINING:     6    ...

----------------------------------------------
Processing job #7... 
	CYCLE  685       REMAINING:     1    ...
	CYCLE  686       REMAINING:     0    ...
	CYCLE  687       REMAINING:     39   ...
	CYCLE  688       REMAINING:     38   ...
	CYCLE  689       REMAINING:     37   ...

----------------------------------------------
Processing job #9... 
	CYCLE  690       REMAINING:     3    ...
	CYCLE  691       REMAINING:     2    ...
	CYCLE  692       REMAINING:     1    ...
	CYCLE  693       REMAINING:     0    ...
	CYCLE  694       REMAINING:     49   ...

----------------------------------------------
Processing job #1... 
	CYCLE  695       REMAINING:     49   ...
	CYCLE  696       REMAINING:     48   ...
	CYCLE  697       REMAINING:     47   ...
	CYCLE  698       REMAINING:     46   ...
	CYCLE  699       REMAINING:     45   ...

----------------------------------------------
Processing job #2... 
	CYCLE  700       REMAINING:     32   ...
	CYCLE  701       REMAINING:     31   ...
	CYCLE  702       REMAINING:     30   ...
	CYCLE  703       REMAINING:     29   ...
	CYCLE  704       REMAINING:     28   ...

----------------------------------------------
Processing job #5... 
	CYCLE  705       REMAINING:     5    ...
	CYCLE  706       REMAINING:     4    ...
	CYCLE  707       REMAINING:     3    ...
	CYCLE  708       REMAINING:     2    ...
	CYCLE  709       REMAINING:     1    ...

----------------------------------------------
Processing job #8... 
	CYCLE  710       REMAINING:     36   ...
	CYCLE  711       REMAINING:     35   ...
	CYCLE  712       REMAINING:     34   ...
	CYCLE  713       REMAINING:     33   ...
	CYCLE  714       REMAINING:     32   ...

----------------------------------------------
Processing job #1014434712... 
	CYCLE  715       REMAINING:     48   ...
	CYCLE  716       REMAINING:     47   ...
	CYCLE  717       REMAINING:     46   ...
	CYCLE  718       REMAINING:     45   ...
	CYCLE  719       REMAINING:     44   ...

----------------------------------------------
Processing job #1... 
	CYCLE  720       REMAINING:     44   ...
	CYCLE  721       REMAINING:     43   ...
	CYCLE  722       REMAINING:     42   ...
	CYCLE  723       REMAINING:     41   ...
	CYCLE  724       REMAINING:     40   ...

----------------------------------------------
Processing job #2... 
	CYCLE  725       REMAINING:     27   ...
	CYCLE  726       REMAINING:     26   ...
	CYCLE  727       REMAINING:     25   ...
	CYCLE  728       REMAINING:     24   ...
	CYCLE  729       REMAINING:     23   ...

----------------------------------------------
Processing job #5... 
	CYCLE  730       REMAINING:     0    ...
	CYCLE  731       REMAINING:     31   ...
	CYCLE  732       REMAINING:     30   ...
	CYCLE  733       REMAINING:     29   ...
	CYCLE  734       REMAINING:     28   ...

----------------------------------------------
Processing job #1014434712... 
	CYCLE  735       REMAINING:     43   ...
	CYCLE  736       REMAINING:     42   ...
	CYCLE  737       REMAINING:     41   ...
	CYCLE  738       REMAINING:     40   ...
	CYCLE  739       REMAINING:     39   ...

----------------------------------------------
Processing job #1... 
	CYCLE  740       REMAINING:     39   ...
	CYCLE  741       REMAINING:     38   ...
	CYCLE  742       REMAINING:     37   ...
	CYCLE  743       REMAINING:     36   ...
	CYCLE  744       REMAINING:     35   ...

----------------------------------------------
Processing job #2... 
	CYCLE  745       REMAINING:     22   ...
	CYCLE  746       REMAINING:     21   ...
	CYCLE  747       REMAINING:     20   ...
	CYCLE  748       REMAINING:     19   ...
	CYCLE  749       REMAINING:     18   ...

----------------------------------------------
Processing job #8... 
	CYCLE  750       REMAINING:     27   ...
	CYCLE  751       REMAINING:     26   ...
	CYCLE  752       REMAINING:     25   ...
	CYCLE  753       REMAINING:     24   ...
	CYCLE  754       REMAINING:     23   ...

----------------------------------------------
Processing job #1014434712... 
	CYCLE  755       REMAINING:     38   ...
	CYCLE  756       REMAINING:     37   ...
	CYCLE  757       REMAINING:     36   ...
	CYCLE  758       REMAINING:     35   ...
	CYCLE  759       REMAINING:     34   ...

----------------------------------------------
Processing job #1... 
	CYCLE  760       REMAINING:     34   ...
	CYCLE  761       REMAINING:     33   ...
	CYCLE  762       REMAINING:     32   ...
	CYCLE  763       REMAINING:     31   ...
	CYCLE  764       REMAINING:     30   ...

----------------------------------------------
Processing job #2... 
	CYCLE  765       REMAINING:     17   ...
	CYCLE  766       REMAINING:     16   ...
	CYCLE  767       REMAINING:     15   ...
	CYCLE  768       REMAINING:     14   ...
	CYCLE  769       REMAINING:     13   ...

----------------------------------------------
Processing job #8... 
	CYCLE  770       REMAINING:     22   ...
	CYCLE  771       REMAINING:     21   ...
	CYCLE  772       REMAINING:     20   ...
	CYCLE  773       REMAINING:     19   ...
	CYCLE  774       REMAINING:     18   ...

----------------------------------------------
Processing job #1014434712... 
	CYCLE  775       REMAINING:     33   ...
	CYCLE  776       REMAINING:     32   ...
	CYCLE  777       REMAINING:     31   ...
	CYCLE  778       REMAINING:     30   ...
	CYCLE  779       REMAINING:     29   ...

----------------------------------------------
Processing job #1... 
	CYCLE  780       REMAINING:     29   ...
	CYCLE  781       REMAINING:     28   ...
	CYCLE  782       REMAINING:     27   ...
	CYCLE  783       REMAINING:     26   ...
	CYCLE  784       REMAINING:     25   ...

----------------------------------------------
Processing job #2... 
	CYCLE  785       REMAINING:     12   ...
	CYCLE  786       REMAINING:     11   ...
	CYCLE  787       REMAINING:     10   ...
	CYCLE  788       REMAINING:     9    ...
	CYCLE  789       REMAINING:     8    ...

----------------------------------------------
Processing job #8... 
	CYCLE  790       REMAINING:     17   ...
	CYCLE  791       REMAINING:     16   ...
	CYCLE  792       REMAINING:     15   ...
	CYCLE  793       REMAINING:     14   ...
	CYCLE  794       REMAINING:     13   ...

----------------------------------------------
Processing job #1014434712... 
	CYCLE  795       REMAINING:     28   ...
	CYCLE  796       REMAINING:     27   ...
	CYCLE  797       REMAINING:     26   ...
	CYCLE  798       REMAINING:     25   ...
	CYCLE  799       REMAINING:     24   ...

----------------------------------------------
Processing job #1... 
	CYCLE  800       REMAINING:     24   ...
	CYCLE  801       REMAINING:     23   ...
	CYCLE  802       REMAINING:     22   ...
	CYCLE  803       REMAINING:     21   ...
	CYCLE  804       REMAINING:     20   ...

----------------------------------------------
Processing job #2... 
	CYCLE  805       REMAINING:     7    ...
	CYCLE  806       REMAINING:     6    ...
	CYCLE  807       REMAINING:     5    ...
	CYCLE  808       REMAINING:     4    ...
	CYCLE  809       REMAINING:     3    ...

----------------------------------------------
Processing job #8... 
	CYCLE  810       REMAINING:     12   ...
	CYCLE  811       REMAINING:     11   ...
	CYCLE  812       REMAINING:     10   ...
	CYCLE  813       REMAINING:     9    ...
	CYCLE  814       REMAINING:     8    ...

----------------------------------------------
Processing job #1014434712... 
	CYCLE  815       REMAINING:     23   ...
	CYCLE  816       REMAINING:     22   ...
	CYCLE  817       REMAINING:     21   ...
	CYCLE  818       REMAINING:     20   ...
	CYCLE  819       REMAINING:     19   ...

----------------------------------------------
Processing job #1... 
	CYCLE  820       REMAINING:     19   ...
	CYCLE  821       REMAINING:     18   ...
	CYCLE  822       REMAINING:     17   ...
	CYCLE  823       REMAINING:     16   ...
	CYCLE  824       REMAINING:     15   ...

----------------------------------------------
Processing job #2... 
	CYCLE  825       REMAINING:     2    ...
	CYCLE  826       REMAINING:     1    ...
	CYCLE  827       REMAINING:     0    ...
	CYCLE  828       REMAINING:     7    ...
	CYCLE  829       REMAINING:     6    ...

----------------------------------------------
Processing job #1014434712... 
	CYCLE  830       REMAINING:     18   ...
	CYCLE  831       REMAINING:     17   ...
	CYCLE  832       REMAINING:     16   ...
	CYCLE  833       REMAINING:     15   ...
	CYCLE  834       REMAINING:     14   ...

----------------------------------------------
Processing job #1... 
	CYCLE  835       REMAINING:     14   ...
	CYCLE  836       REMAINING:     13   ...
	CYCLE  837       REMAINING:     12   ...
	CYCLE  838       REMAINING:     11   ...
	CYCLE  839       REMAINING:     10   ...

----------------------------------------------
Processing job #8... 
	CYCLE  840       REMAINING:     5    ...
	CYCLE  841       REMAINING:     4    ...
	CYCLE  842       REMAINING:     3    ...
	CYCLE  843       REMAINING:     2    ...
	CYCLE  844       REMAINING:     1    ...

----------------------------------------------
Processing job #1014434712... 
	CYCLE  845       REMAINING:     13   ...
	CYCLE  846       REMAINING:     12   ...
	CYCLE  847       REMAINING:     11   ...
	CYCLE  848       REMAINING:     10   ...
	CYCLE  849       REMAINING:     9    ...

----------------------------------------------
Processing job #1... 
	CYCLE  850       REMAINING:     9    ...
	CYCLE  851       REMAINING:     8    ...
	CYCLE  852       REMAINING:     7    ...
	CYCLE  853       REMAINING:     6    ...
	CYCLE  854       REMAINING:     5    ...

----------------------------------------------
Processing job #8... 
	CYCLE  855       REMAINING:     0    ...
	CYCLE  856       REMAINING:     8    ...
	CYCLE  857       REMAINING:     7    ...
	CYCLE  858       REMAINING:     6    ...
	CYCLE  859       REMAINING:     5    ...

----------------------------------------------
Processing job #1... 
	CYCLE  860       REMAINING:     4    ...
	CYCLE  861       REMAINING:     3    ...
	CYCLE  862       REMAINING:     2    ...
	CYCLE  863       REMAINING:     1    ...
	CYCLE  864       REMAINING:     0    ...

----------------------------------------------
Processing job #1014434712... 
	CYCLE  865       REMAINING:     4    ...
	CYCLE  866       REMAINING:     3    ...
	CYCLE  867       REMAINING:     2    ...
	CYCLE  868       REMAINING:     1    ...
	CYCLE  869       REMAINING:     0    ...


---------------------------------------------------------
---------------------------------------------------------


Round Robin results:

JOB ID    TIME TO COMPLETE    TIMES INTERRUPTED   
0         0                   0                   
1         0                   0                   
2         0                   0                   
3         0                   0                   
4         0                   0                   
5         0                   0                   
6         0                   0                   
7         0                   0                   
8         855                 23                  
9         693                 14                  

Total time: ............. 870
	(Time for all jobs to complete processing)

Average time: ........... 154.8
	(The average time to complete, including the wait time while items
	are ahead of it in the queue.)

Round robin interval: ... 5
	(Every n units of time, move the current item being processed
	to the back of the queue and start working on the next item)
