digraph "cuTEST/EXAMPLES" {
  compound=true
  node [ fontsize="10", fontname="Helvetica"];
  edge [ labelfontsize="10", labelfontname="Helvetica"];
  subgraph clusterdir_01053e417d9c83d53da67da4cd250683 {
    graph [ bgcolor="#ddddee", pencolor="black", label="cuTEST" fontname="Helvetica", fontsize="10", URL="dir_01053e417d9c83d53da67da4cd250683.html"]
  dir_9a4d9f16040be9dd26a35b1424b7854c [shape=box, label="EXAMPLES", style="filled", fillcolor="#eeeeff", pencolor="black", URL="dir_9a4d9f16040be9dd26a35b1424b7854c.html"];
  }
}
