digraph "EXCEPTIONS/NotImplementedException.hpp"
{
  edge [fontname="Helvetica",fontsize="10",labelfontname="Helvetica",labelfontsize="10"];
  node [fontname="Helvetica",fontsize="10",shape=record];
  Node1 [label="EXCEPTIONS/NotImplemented\lException.hpp",height=0.2,width=0.4,color="black", fillcolor="grey75", style="filled", fontcolor="black"];
  Node1 -> Node2 [color="midnightblue",fontsize="10",style="solid",fontname="Helvetica"];
  Node2 [label="../UTILITIES/Logger.hpp",height=0.2,width=0.4,color="black", fillcolor="white", style="filled",URL="$Logger_8hpp.html"];
  Node2 -> Node3 [color="midnightblue",fontsize="10",style="solid",fontname="Helvetica"];
  Node3 [label="chrono",height=0.2,width=0.4,color="grey75", fillcolor="white", style="filled"];
  Node2 -> Node4 [color="midnightblue",fontsize="10",style="solid",fontname="Helvetica"];
  Node4 [label="iostream",height=0.2,width=0.4,color="grey75", fillcolor="white", style="filled"];
  Node2 -> Node5 [color="midnightblue",fontsize="10",style="solid",fontname="Helvetica"];
  Node5 [label="fstream",height=0.2,width=0.4,color="grey75", fillcolor="white", style="filled"];
  Node2 -> Node6 [color="midnightblue",fontsize="10",style="solid",fontname="Helvetica"];
  Node6 [label="string",height=0.2,width=0.4,color="grey75", fillcolor="white", style="filled"];
  Node2 -> Node7 [color="midnightblue",fontsize="10",style="solid",fontname="Helvetica"];
  Node7 [label="iomanip",height=0.2,width=0.4,color="grey75", fillcolor="white", style="filled"];
  Node1 -> Node8 [color="midnightblue",fontsize="10",style="solid",fontname="Helvetica"];
  Node8 [label="stdexcept",height=0.2,width=0.4,color="grey75", fillcolor="white", style="filled"];
}
